<?xml version="1.0" encoding="UTF-8" standalone="no"?>
<svg width="35px" height="24px" viewBox="0 0 35 24" version="1.1" xmlns="http://www.w3.org/2000/svg" xmlns:xlink="http://www.w3.org/1999/xlink" xmlns:sketch="http://www.bohemiancoding.com/sketch/ns">
    <!-- Generator: Sketch 3.3.3 (12081) - http://www.bohemiancoding.com/sketch -->
    <title>CSUSB Logo</title>
    <desc>Created with Sketch.</desc>
    <defs></defs>
    <g id="Page-1" stroke="none" stroke-width="1" fill="none" fill-rule="evenodd" sketch:type="MSPage">
        <g id="Desktop-HD" sketch:type="MSArtboardGroup" transform="translate(-263.000000, -32.000000)" fill="#FFFFFF">
            <path d="M269.406504,48.159408 L269.406504,49.4983904 C269.021682,49.2753538 268.663069,49.1133535 268.331422,49.0123894 C267.999775,48.9083735 267.657291,48.8562384 267.304222,48.855984 C266.773234,48.855984 266.296932,48.9767849 265.876324,49.2176237 C265.455213,49.4589711 265.127094,49.7972136 264.891967,50.2326054 C264.660116,50.6644367 264.544443,51.1575586 264.544443,51.7114624 C264.544443,52.312415 264.672717,52.8630127 264.929265,53.3632554 C265.186317,53.8634982 265.537117,54.2592165 265.983177,54.5506645 C266.428986,54.8388063 266.919149,54.9824958 267.454169,54.9824958 C267.857136,54.9824958 268.25103,54.92502 268.636104,54.8098141 C269.02143,54.6910478 269.472279,54.4931887 269.989658,54.2159825 L269.406504,55.5763275 C269.196074,55.6627955 268.998245,55.7294267 268.813016,55.7759668 C268.627536,55.8260674 268.436763,55.8621805 268.240698,55.8840518 C268.048161,55.9092293 267.837479,55.9214365 267.609661,55.9216908 C266.967787,55.9216908 266.374047,55.8260674 265.828442,55.6355835 C265.286365,55.4450996 264.819136,55.1714538 264.427005,54.8151548 C264.038151,54.455041 263.740274,54.0288047 263.533624,53.5356828 C263.330251,53.0392548 263.22869,52.495778 263.22869,51.9055068 C263.22869,51.1428082 263.405098,50.4536074 263.758167,49.8381587 C264.111235,49.2191496 264.599885,48.7351832 265.223866,48.3862594 C265.851375,48.0370813 266.55222,47.8626194 267.326147,47.862365 C267.907034,47.8626194 268.60057,47.9618032 269.406504,48.159408 L269.406504,48.159408 Z M275.38674,48.1164284 L275.38674,49.444475 C275.136996,49.1960067 274.853483,49.0070487 274.536201,48.877601 C274.222194,48.7445929 273.895839,48.678216 273.557135,48.6779617 C273.100742,48.6779617 272.731797,48.7804517 272.450048,48.985686 C272.171827,49.1873599 272.032717,49.4498157 272.032717,49.7738164 C272.032717,49.9683694 272.079087,50.1392708 272.171827,50.286775 C272.268096,50.4307188 272.433919,50.5766971 272.669298,50.723947 C272.904929,50.8678908 273.263038,51.0532884 273.744632,51.2801397 C274.26176,51.5250476 274.628941,51.7066304 274.846427,51.8253967 C275.067441,51.944163 275.261742,52.0756453 275.429582,52.219589 C275.628923,52.3742142 275.782398,52.5616463 275.889251,52.7811224 C275.999884,53.0005985 276.055075,53.2360966 276.055075,53.4881254 C276.055075,53.776013 275.991064,54.0565253 275.862538,54.3301711 C275.73754,54.6038169 275.56466,54.8502506 275.343646,55.0697268 C274.751418,55.6457562 273.943721,55.9333894 272.920554,55.9333894 C272.556901,55.9333894 272.218197,55.9046515 271.904191,55.8471758 C271.590436,55.7891913 271.249969,55.6961111 270.882536,55.5664091 L270.53476,54.1198504 C271.308435,54.7388595 272.155447,55.0481098 273.075541,55.0481098 C273.389296,55.0481098 273.679865,54.9959746 273.947501,54.8917044 C274.215138,54.7874342 274.423803,54.6450163 274.573246,54.4649594 C274.726469,54.2851569 274.803081,54.0819571 274.803081,53.8551057 C274.803081,53.5313594 274.676571,53.2544075 274.423551,53.0239957 C274.312918,52.9197255 274.157679,52.8134207 273.957834,52.7053357 C273.758241,52.5939446 273.419285,52.4283838 272.941723,52.2089077 C272.506499,52.0143547 272.173087,51.8508285 271.941237,51.717566 C271.709386,51.5809975 271.509793,51.4352735 271.342205,51.2801397 C271.160505,51.1110185 271.014086,50.9060385 270.903705,50.6649454 C270.796852,50.4238522 270.743173,50.1791987 270.743173,49.9307304 C270.743173,49.5131408 270.860863,49.1499752 271.09599,48.8402163 C271.33162,48.5271513 271.66478,48.2860582 272.096476,48.116937 C272.531448,47.9478158 273.039503,47.8633823 273.620894,47.863128 C274.202789,47.8626194 274.791236,47.9473071 275.38674,48.1164284 L275.38674,48.1164284 Z M282.297907,55.7329871 L282.297907,54.9232398 C281.752302,55.5890434 280.989211,55.9216908 280.008633,55.9219451 C279.455972,55.9219451 278.963793,55.8085195 278.532349,55.5819225 C278.104433,55.3515107 277.790427,55.0366655 277.591086,54.6371325 C277.516238,54.493443 277.459032,54.3530597 277.419718,54.2162368 C277.383932,54.0796682 277.357219,53.9141074 277.339578,53.7195544 C277.325213,53.5216953 277.318157,53.2607654 277.318157,52.9370191 L277.318157,49.5413701 C277.318157,49.2069424 277.303792,48.9477927 277.275567,48.7641754 C277.250366,48.5772519 277.200468,48.4312736 277.12562,48.326749 C277.050521,48.2189184 276.941904,48.1271097 276.799265,48.0515774 L278.99227,48.0515774 C278.849632,48.1309245 278.742779,48.2224788 278.67146,48.326749 C278.60014,48.4274588 278.550242,48.5716569 278.521765,48.7585804 C278.493287,48.9457582 278.478923,49.2066881 278.478923,49.5411157 L278.478923,52.9367648 C278.478923,53.3251078 278.505384,53.6241853 278.559062,53.8327258 C278.616017,54.0379601 278.72287,54.2358192 278.879873,54.4263031 C279.050989,54.6350979 279.264695,54.795318 279.521747,54.9069635 C279.782075,55.0150485 280.05828,55.0689638 280.350865,55.0689638 C280.693097,55.0689638 281.012144,54.9972462 281.308257,54.8530481 C281.607647,54.7055439 281.843026,54.5092107 282.014394,54.2645571 C282.106882,54.1389242 282.169381,54.0112568 282.201639,53.8813005 C282.237424,53.7485467 282.255065,53.5667095 282.255065,53.3360435 L282.255065,49.5413701 C282.255065,49.2069424 282.240701,48.9460125 282.212223,48.7588347 C282.183746,48.5719112 282.133596,48.4277131 282.062528,48.3270034 C281.991209,48.2227331 281.884104,48.1309245 281.741717,48.0518317 L283.934723,48.0518317 C283.795612,48.127364 283.688507,48.2173925 283.613912,48.3216627 C283.538812,48.4261872 283.48715,48.570131 283.458673,48.753494 C283.430195,48.936857 283.415831,49.1998215 283.415831,49.5416244 L283.415831,54.2434488 C283.415831,54.5852517 283.430195,54.8479618 283.458673,55.0315791 C283.48715,55.2151964 283.538812,55.3591402 283.613912,55.4634105 C283.688759,55.5676807 283.795864,55.6577091 283.934723,55.7332415 L282.297907,55.7332415 L282.297907,55.7329871 Z M289.75972,48.1164284 L289.75972,49.444475 C289.510228,49.1960067 289.226715,49.0070487 288.909181,48.877601 C288.595174,48.7445929 288.269071,48.678216 287.930367,48.6779617 C287.473722,48.6779617 287.104777,48.7804517 286.823028,48.985686 C286.544807,49.1873599 286.405697,49.4498157 286.405697,49.7738164 C286.405697,49.9683694 286.452067,50.1392708 286.545059,50.286775 C286.641076,50.4307188 286.806899,50.5766971 287.04253,50.723947 C287.277909,50.8678908 287.63627,51.0532884 288.117864,51.2801397 C288.63474,51.5250476 289.001921,51.7066304 289.219659,51.8253967 C289.440421,51.944163 289.634722,52.0756453 289.802562,52.219589 C290.002155,52.3742142 290.155378,52.5616463 290.262483,52.7811224 C290.372864,53.0005985 290.428055,53.2360966 290.428307,53.4881254 C290.428307,53.776013 290.364044,54.0565253 290.235518,54.3301711 C290.110772,54.6038169 289.93764,54.8502506 289.716626,55.0697268 C289.124399,55.6457562 288.316701,55.9333894 287.293534,55.9333894 C286.929881,55.9333894 286.591178,55.9046515 286.277171,55.8471758 C285.963417,55.7891913 285.622949,55.6961111 285.255768,55.5664091 L284.90774,54.1198504 C285.681415,54.7388595 286.528679,55.0481098 287.448521,55.0481098 C287.762528,55.0481098 288.052845,54.9959746 288.320733,54.8917044 C288.588118,54.7874342 288.796783,54.6450163 288.946226,54.4649594 C289.099449,54.2851569 289.176061,54.0819571 289.176313,53.8551057 C289.176313,53.5313594 289.049551,53.2544075 288.796531,53.0239957 C288.685898,52.9197255 288.530659,52.8134207 288.331066,52.7053357 C288.131221,52.5939446 287.792265,52.4283838 287.314955,52.2089077 C286.879731,52.0143547 286.546067,51.8508285 286.314469,51.717566 C286.082618,51.5809975 285.882773,51.4352735 285.715185,51.2801397 C285.533485,51.1110185 285.387318,50.9060385 285.276685,50.6649454 C285.169832,50.4238522 285.116153,50.1791987 285.116153,49.9307304 C285.116153,49.5131408 285.233843,49.1499752 285.469222,48.8402163 C285.704601,48.5271513 286.038012,48.2860582 286.469456,48.116937 C286.904428,47.9478158 287.412735,47.8633823 287.994126,47.863128 C288.575769,47.8626194 289.164216,47.9473071 289.75972,48.1164284 L289.75972,48.1164284 Z M293.669933,48.0406417 L294.033585,48.0406417 C294.432772,48.0406417 294.753583,48.0622587 294.99627,48.1054927 C295.242485,48.1451663 295.454427,48.2156122 295.632599,48.3160677 C295.832445,48.4203379 296.001796,48.5464795 296.141159,48.6937294 C296.283545,48.8412336 296.39065,49.0052685 296.46197,49.1850711 C296.536817,49.3613132 296.574115,49.5505255 296.574115,49.7519451 C296.574115,49.9932925 296.513632,50.2252302 296.392162,50.4482667 C296.274473,50.6677429 296.112429,50.8475454 295.905276,50.9881831 C295.801699,51.060155 295.63764,51.1501834 295.413349,51.2580141 C295.773222,51.351603 296.062027,51.4614682 296.279765,51.5873554 C296.607884,51.7745332 296.861156,52.0191868 297.03958,52.3215704 C297.217753,52.6236998 297.306965,52.9530411 297.307217,53.3095944 C297.307217,53.748801 297.176675,54.1569808 296.916599,54.5346425 C296.656271,54.908998 296.30169,55.2024806 295.852101,55.4145815 C295.730632,55.4684968 295.600594,55.5170715 295.461483,55.5603055 C295.325901,55.5997247 295.170914,55.6340576 294.996018,55.6627955 C294.82465,55.6882272 294.667899,55.7042493 294.525512,55.7111158 C294.38615,55.7182367 294.17068,55.7258662 293.878346,55.7327328 L293.070649,55.7327328 L291.423249,55.7327328 C291.565635,55.6572005 291.674252,55.5674264 291.749604,55.4629018 C291.824451,55.3548168 291.874098,55.2090928 291.899299,55.0254755 C291.927776,54.838552 291.941889,54.5776221 291.942141,54.2429401 L291.942141,49.5413701 C291.942141,49.2069424 291.927776,48.9477927 291.899299,48.7641754 C291.874098,48.5772519 291.824451,48.4312736 291.749604,48.326749 C291.674504,48.2189184 291.565887,48.1271097 291.423249,48.0515774 L293.070649,48.0515774 C293.259658,48.0515774 293.459503,48.0482712 293.669933,48.0406417 L293.669933,48.0406417 Z M293.070901,48.855984 L293.070901,51.1448427 C293.210011,51.1593388 293.355926,51.1664597 293.509401,51.1664597 C293.865746,51.1664597 294.18328,51.1161048 294.461501,51.0151407 C294.739722,50.914431 294.955192,50.7725217 295.108415,50.5886501 C295.26189,50.4017266 295.33825,50.1855566 295.338502,49.9409031 C295.338502,49.5955397 295.201155,49.3185878 294.926715,49.1095387 C294.65555,48.8974378 294.298954,48.791133 293.856673,48.791133 C293.628855,48.7913874 293.366763,48.81275 293.070901,48.855984 L293.070901,48.855984 Z M293.070901,51.9273781 L293.070901,54.8044735 C293.274274,54.8477075 293.448918,54.8764454 293.595085,54.8909415 C293.741252,54.9054376 293.905059,54.9123041 294.087264,54.9123041 C294.489978,54.9123041 294.83599,54.8566086 295.124796,54.7452175 C295.417129,54.6302659 295.638144,54.4644508 295.78809,54.2485351 C295.941314,54.0326195 296.017925,53.7719439 296.018177,53.4659998 C296.018177,52.9586361 295.837989,52.5644438 295.477612,52.2839314 C295.29944,52.1364272 295.09279,52.032157 294.857159,51.9708664 C294.621781,51.9060154 294.318359,51.8737171 293.947901,51.8737171 C293.652292,51.8734627 293.359958,51.8915193 293.070901,51.9273781 L293.070901,51.9273781 Z M266.001826,44.4801948 C268.043373,37.9317701 273.26581,33.9967134 280.308779,33.9967134 C287.351497,33.9967134 292.526556,37.9317701 294.61548,44.4801948 C294.893197,45.3494525 296.817054,45.1322653 296.817054,45.1322653 C294.984929,37.6721118 288.279404,32.4652126 280.287358,32.4652126 C272.295313,32.4652126 265.589787,37.6721118 263.757663,45.1322653 C263.757411,45.1325196 265.73293,45.3425859 266.001826,44.4801948 L266.001826,44.4801948 Z M293.70597,45.1564254 C293.207995,45.0635995 292.522524,44.8148768 292.097632,44.4412842 C284.86767,38.0782571 283.341991,37.4325446 283.341991,37.4325446 C281.720548,38.3457992 278.957997,40.2272411 278.957997,40.2272411 C278.957997,40.2272411 277.595622,39.7951554 276.419736,39.5128628 C275.627159,40.1250054 273.940949,41.6987229 273.940949,41.6987229 C273.940949,41.6987229 271.866641,41.3398807 271.608077,41.2930863 C271.185454,41.7022833 269.834167,43.2177621 268.701375,44.3502385 C268.228097,44.823015 267.146967,45.1063249 266.793395,45.1559168 L293.70597,45.1559168 L293.70597,45.1564254 Z" id="CSUSB-Logo" sketch:type="MSShapeGroup"></path>
        </g>
    </g>
</svg>