<?xml version="1.0" encoding="UTF-8" standalone="no"?>
<svg width="34px" height="34px" viewBox="0 0 34 34" version="1.1" xmlns="http://www.w3.org/2000/svg" xmlns:xlink="http://www.w3.org/1999/xlink" xmlns:sketch="http://www.bohemiancoding.com/sketch/ns">
    <!-- Generator: Sketch 3.3.3 (12081) - http://www.bohemiancoding.com/sketch -->
    <title>satellite</title>
    <desc>Created with Sketch.</desc>
    <defs></defs>
    <g id="Page-1" stroke="none" stroke-width="1" fill="none" fill-rule="evenodd" sketch:type="MSPage">
        <g id="Desktop-HD-Copy-2" sketch:type="MSArtboardGroup" transform="translate(-263.000000, -719.000000)" fill="#0065BD">
            <g id="satellite" sketch:type="MSLayerGroup" transform="translate(263.000000, 719.000000)">
                <path d="M17,0 C7.65,0 0,7.65 0,17 C0,26.35 7.65,34 17,34 C26.35,34 34,26.35 34,17 C34,7.65 26.35,0 17,0 L17,0 Z M21.6414474,13.6548026 L13.8438158,21.4524342 L9.57368421,17.3679605 L3.44697368,23.4946711 C2.70434211,21.6380921 2.14736842,19.5958553 2.14736842,17.3679605 C2.14736842,9.19901316 8.83105263,2.51532895 17,2.51532895 C25.1689474,2.51532895 31.8526316,9.19901316 31.8526316,17.3679605 C31.8526316,19.2245395 31.4813158,21.0811184 30.7386842,22.7520395 L21.6414474,13.6548026 L21.6414474,13.6548026 Z" id="Shape" sketch:type="MSShapeGroup"></path>
            </g>
        </g>
    </g>
</svg>